757.748	202.455
761.871	269.026
768.151	334.777
772.362	401.919
776.977	468.212
690.968	205.489
696.495	271.686
701.24	338.181
706.177	406.17
715.35	473.864
626.367	207.965
629.81	275.23
636.8	342.42
643.263	410.234
644.685	479.28
556.042	212.624
562.982	279.245
569.35	347.747
574.014	416.416
576.236	485.086
489.173	217.114
493.134	284.734
500.002	352.147
506.47	422.06
509.72	490.68
417.477	224.009
425.837	290.865
426.548	359.014
437.967	426.983
441.658	496.091
355.185	230.026
360.218	297.622
365.062	364.533
371.895	433.807
373.193	502.099
288.023	236.502
293.959	303.407
296.058	372.619
301.974	439.909
313.009	507.771
